{
  "products": [
    {
      "title": "Çorbalar",
      "items": [
        {
          "name": "Mercimek Çorbası",
          "image": "/assets/images/mercimek-corbasi.png",
          "price": 60
        },
        {
          "name": "Günün Çorbası",
          "image": "/assets/images/no-image.jpeg"
        }
      ]
    },
    {
      "title": "Ana Yemekler",
      "items": [
        {
          "name": "Kuru Fasulye + Pilav + Cacık",
          "image": "/assets/images/no-image.jpeg",
          "price": 180
        },
        {
          "name": "Etli Güveç + Pilav + Cacık",
          "image": "/assets/images/no-image.jpeg",
          "price": 180
        },
        {
          "name": "Kuzu Kavurma + Pilav + Cacık",
          "image": "/assets/images/no-image.jpeg",
          "price": 290
        },
        {
          "name": "İçli Köfte (3 Adet)",
          "image": "/assets/images/no-image.jpeg",
          "price": 180
        },
        {
          "name": "Mantı",
          "image": "/assets/images/no-image.jpeg",
          "price": 180
        },
        {
          "name": "Patates Kızartması",
          "image": "/assets/images/no-image.jpeg",
          "price": 60
        },
        {
          "name": "Zeytinyağlılar (Porsiyon)",
          "image": "/assets/images/no-image.jpeg",
          "price": 100
        }
      ]
    },
    {
      "title": "Sıkma & Börekler",
      "items": [
        {
          "name": "Peynirli Sıkma",
          "image": "/assets/images/no-image.jpeg",
          "price": 40
        },
        {
          "name": "Patatesli Sıkma",
          "image": "/assets/images/no-image.jpeg",
          "price": 40
        },
        {
          "name": "Ispanaklı Börek",
          "image": "/assets/images/no-image.jpeg",
          "price": 40
        },
        {
          "name": "Peynirli Börek",
          "image": "/assets/images/no-image.jpeg",
          "price": 40
        },
        {
          "name": "Patatesli Börek",
          "image": "/assets/images/no-image.jpeg",
          "price": 40
        },
        {
          "name": "Mercimek Çorbası",
          "image": "/assets/images/mercimek-corbasi.jpeg",
          "price": 60
        }
      ]
    },
    {
      "title": "Kilo ile Satışlarımız",
      "items": [
        {
          "name": "Mantı (500gr)",
          "image": "/assets/images/no-image.jpeg",
          "price": 160
        },
        {
          "name": "Yüksük Çorbası (500gr)",
          "image": "/assets/images/no-image.jpeg",
          "price": 160
        },
        {
          "name": "İçli Köfte (Adet)",
          "image": "/assets/images/no-image.jpeg",
          "price": 45
        }
      ]
    },
    {
      "title": "Tatlılar",
      "items": [
        {
          "name": "Fırın Sütlaç",
          "image": "/assets/images/no-image.jpeg",
          "price": 60
        }
      ]
    },
    {
      "title": "İçecekler",
      "items": [
        {
          "name": "Kola / Fanta",
          "image": "/assets/images/no-image.jpeg",
          "price": 40
        },
        {
          "name": "Sprite / Ice Tea",
          "image": "/assets/images/no-image.jpeg",
          "price": 40
        },
        {
          "name": "Ayran",
          "image": "/assets/images/no-image.jpeg",
          "price": 40
        },
        {
          "name": "Soda",
          "image": "/assets/images/no-image.jpeg",
          "price": 25
        },
        {
          "name": "Kahve",
          "image": "/assets/images/no-image.jpeg",
          "price": 20
        },
        {
          "name": "Çay",
          "image": "/assets/images/no-image.jpeg",
          "price": 15
        },
        {
          "name": "Su",
          "image": "/assets/images/no-image.jpeg",
          "price": 15
        }
      ]
    }
  ]
}